…
# Data

``` r
# data #-----------
ls_wdf <- readRDS(here("note_lehuynh/working_df.RDS"))

ls_wdf
```

    ## $valencia
    ## # A tibble: 1,826 × 31
    ##    city     date      year  month   day dow     all allage1 allage2 tmean    rh  pm10 stratum tmean_l0 rh_l0 pm10_l0
    ##    <chr>    <chr>     <fct> <fct> <int> <fct> <int>   <int>   <int> <dbl> <dbl> <dbl> <fct>      <dbl> <dbl>   <dbl>
    ##  1 Valencia 01jan2002 2002  1         1 2        31       5      26  8.90  85    17.8 2002:1…     8.90  85      17.8
    ##  2 Valencia 02jan2002 2002  1         2 3        29       3      26  8.5   89.4  21.7 2002:1…     8.5   89.4    21.7
    ##  3 Valencia 03jan2002 2002  1         3 4        23       4      19 10.8   86.8  43.2 2002:1…    10.8   86.8    43.2
    ##  4 Valencia 04jan2002 2002  1         4 5        17       2      15  9.60  88.1  19.8 2002:1…     9.60  88.1    19.8
    ##  5 Valencia 05jan2002 2002  1         5 6        19       6      13  9.20  88.8  15.9 2002:1…     9.20  88.8    15.9
    ##  6 Valencia 06jan2002 2002  1         6 0        26       4      22  9.70  87.2  20.5 2002:1…     9.70  87.2    20.5
    ##  7 Valencia 07jan2002 2002  1         7 1        25       6      19  8.80  72.4  48.9 2002:1…     8.80  72.4    48.9
    ##  8 Valencia 08jan2002 2002  1         8 2        21       0      21  9.40  78.5  26   2002:1…     9.40  78.5    26  
    ##  9 Valencia 09jan2002 2002  1         9 3        15       3      12  8.80  83.6  18.7 2002:1…     8.80  83.6    18.7
    ## 10 Valencia 10jan2002 2002  1        10 4        19       1      18  9.60  76.2  39.6 2002:1…     9.60  76.2    39.6
    ## # ℹ 1,816 more rows
    ## # ℹ 15 more variables: tmean_l1 <dbl>, rh_l1 <dbl>, pm10_l1 <dbl>, tmean_l2 <dbl>, rh_l2 <dbl>, pm10_l2 <dbl>,
    ## #   tmean_l3 <dbl>, rh_l3 <dbl>, pm10_l3 <dbl>, l03tmean <dbl>, l03rh <dbl>, l01pm10 <dbl>, ns.tmean <ns[,6]>,
    ## #   ns.rh <ns[,3]>, ind <int>
    ## 
    ## $london
    ## # A tibble: 1,826 × 29
    ##    city   date      year  month   day dow     all   tmean    rh  pm10 stratum  tmean_l0 rh_l0 pm10_l0 tmean_l1 rh_l1
    ##    <chr>  <chr>     <fct> <fct> <int> <fct> <int>   <dbl> <dbl> <dbl> <fct>       <dbl> <dbl>   <dbl>    <dbl> <dbl>
    ##  1 London 01jan2002 2002  1         1 2       199 -0.225   75.7  71.7 2002:1:2  -0.225   75.7    71.7  NA       NA  
    ##  2 London 02jan2002 2002  1         2 3       231  0.0875  77.5  40.2 2002:1:3   0.0875  77.5    40.2  -0.225   75.7
    ##  3 London 03jan2002 2002  1         3 4       210  0.850   81.3  41.8 2002:1:4   0.850   81.3    41.8   0.0875  77.5
    ##  4 London 04jan2002 2002  1         4 5       203  0.538   85.4  50.4 2002:1:5   0.538   85.4    50.4   0.850   81.3
    ##  5 London 05jan2002 2002  1         5 6       224  4.25    93.5  49.4 2002:1:6   4.25    93.5    49.4   0.538   85.4
    ##  6 London 06jan2002 2002  1         6 0       198  7.07    96.4  31.1 2002:1:0   7.07    96.4    31.1   4.25    93.5
    ##  7 London 07jan2002 2002  1         7 1       180  5.19    93.5  48.6 2002:1:1   5.19    93.5    48.6   7.07    96.4
    ##  8 London 08jan2002 2002  1         8 2       188  3.51    81.5  48.6 2002:1:2   3.51    81.5    48.6   5.19    93.5
    ##  9 London 09jan2002 2002  1         9 3       168  3.22    88.3  59.2 2002:1:3   3.22    88.3    59.2   3.51    81.5
    ## 10 London 10jan2002 2002  1        10 4       194  5.32    85.4  48.7 2002:1:4   5.32    85.4    48.7   3.22    88.3
    ## # ℹ 1,816 more rows
    ## # ℹ 13 more variables: pm10_l1 <dbl>, tmean_l2 <dbl>, rh_l2 <dbl>, pm10_l2 <dbl>, tmean_l3 <dbl>, rh_l3 <dbl>,
    ## #   pm10_l3 <dbl>, l03tmean <dbl>, l03rh <dbl>, l01pm10 <dbl>, ns.tmean <ns[,6]>, ns.rh <ns[,3]>, ind <int>
…
    ##         exp(Est.)     2.5%    97.5%
    ## l01pm10   1.00641 1.002558 1.010278

# Adjustment of sub-population time-invariant covariates

``` r
# sub-population #-----------------------
# reshape data
(df_model2 <- ls_wdf[[1]] %>% 
    pivot_longer(cols = c(allage1, allage2),
                 names_to = "age",
                 values_to = "allage"))
```

    ## # A tibble: 3,652 × 31
    ##    city  date  year  month   day dow     all tmean    rh  pm10 stratum tmean_l0 rh_l0 pm10_l0 tmean_l1 rh_l1 pm10_l1
    ##    <chr> <chr> <fct> <fct> <int> <fct> <int> <dbl> <dbl> <dbl> <fct>      <dbl> <dbl>   <dbl>    <dbl> <dbl>   <dbl>
    ##  1 Vale… 01ja… 2002  1         1 2        31  8.90  85    17.8 2002:1…     8.90  85      17.8    NA     NA      NA  
    ##  2 Vale… 01ja… 2002  1         1 2        31  8.90  85    17.8 2002:1…     8.90  85      17.8    NA     NA      NA  
    ##  3 Vale… 02ja… 2002  1         2 3        29  8.5   89.4  21.7 2002:1…     8.5   89.4    21.7     8.90  85      17.8
    ##  4 Vale… 02ja… 2002  1         2 3        29  8.5   89.4  21.7 2002:1…     8.5   89.4    21.7     8.90  85      17.8
    ##  5 Vale… 03ja… 2002  1         3 4        23 10.8   86.8  43.2 2002:1…    10.8   86.8    43.2     8.5   89.4    21.7
    ##  6 Vale… 03ja… 2002  1         3 4        23 10.8   86.8  43.2 2002:1…    10.8   86.8    43.2     8.5   89.4    21.7
    ##  7 Vale… 04ja… 2002  1         4 5        17  9.60  88.1  19.8 2002:1…     9.60  88.1    19.8    10.8   86.8    43.2
    ##  8 Vale… 04ja… 2002  1         4 5        17  9.60  88.1  19.8 2002:1…     9.60  88.1    19.8    10.8   86.8    43.2
    ##  9 Vale… 05ja… 2002  1         5 6        19  9.20  88.8  15.9 2002:1…     9.20  88.8    15.9     9.60  88.1    19.8
    ## 10 Vale… 05ja… 2002  1         5 6        19  9.20  88.8  15.9 2002:1…     9.20  88.8    15.9     9.60  88.1    19.8
    ## # ℹ 3,642 more rows
    ## # ℹ 14 more variables: tmean_l2 <dbl>, rh_l2 <dbl>, pm10_l2 <dbl>, tmean_l3 <dbl>, rh_l3 <dbl>, pm10_l3 <dbl>,
    ## #   l03tmean <dbl>, l03rh <dbl>, l01pm10 <dbl>, ns.tmean <ns[,6]>, ns.rh <ns[,3]>, ind <int>, age <chr>,
    ## #   allage <int>
…
    ##         exp(Est.)     2.5%    97.5%
    ## l01pm10  1.022943 1.002817 1.043473

Generate age-time-stratified strata

``` r
df_model2 %>% 
    mutate(age = as.factor(age),
           stratum4 = as.factor(year:month:dow:age)) %>% 
    select(year, month, dow, age, stratum4)
```

    ## # A tibble: 3,652 × 5
    ##    year  month dow   age     stratum4        
    ##    <fct> <fct> <fct> <fct>   <fct>           
    ##  1 2002  1     2     allage1 2002:1:2:allage1
    ##  2 2002  1     2     allage2 2002:1:2:allage2
    ##  3 2002  1     3     allage1 2002:1:3:allage1
    ##  4 2002  1     3     allage2 2002:1:3:allage2
    ##  5 2002  1     4     allage1 2002:1:4:allage1
    ##  6 2002  1     4     allage2 2002:1:4:allage2
    ##  7 2002  1     5     allage1 2002:1:5:allage1
    ##  8 2002  1     5     allage2 2002:1:5:allage2
    ##  9 2002  1     6     allage1 2002:1:6:allage1
    ## 10 2002  1     6     allage2 2002:1:6:allage2
    ## # ℹ 3,642 more rows

``` r
(df_model3 <- df_model2 %>% 
    mutate(age = as.factor(age),
           stratum4 = as.factor(year:month:dow:age)))
```

    ## # A tibble: 3,652 × 32
    ##    city  date  year  month   day dow     all tmean    rh  pm10 stratum tmean_l0 rh_l0 pm10_l0 tmean_l1 rh_l1 pm10_l1
    ##    <chr> <chr> <fct> <fct> <int> <fct> <int> <dbl> <dbl> <dbl> <fct>      <dbl> <dbl>   <dbl>    <dbl> <dbl>   <dbl>
    ##  1 Vale… 01ja… 2002  1         1 2        31  8.90  85    17.8 2002:1…     8.90  85      17.8    NA     NA      NA  
    ##  2 Vale… 01ja… 2002  1         1 2        31  8.90  85    17.8 2002:1…     8.90  85      17.8    NA     NA      NA  
    ##  3 Vale… 02ja… 2002  1         2 3        29  8.5   89.4  21.7 2002:1…     8.5   89.4    21.7     8.90  85      17.8
    ##  4 Vale… 02ja… 2002  1         2 3        29  8.5   89.4  21.7 2002:1…     8.5   89.4    21.7     8.90  85      17.8
    ##  5 Vale… 03ja… 2002  1         3 4        23 10.8   86.8  43.2 2002:1…    10.8   86.8    43.2     8.5   89.4    21.7
    ##  6 Vale… 03ja… 2002  1         3 4        23 10.8   86.8  43.2 2002:1…    10.8   86.8    43.2     8.5   89.4    21.7
    ##  7 Vale… 04ja… 2002  1         4 5        17  9.60  88.1  19.8 2002:1…     9.60  88.1    19.8    10.8   86.8    43.2
    ##  8 Vale… 04ja… 2002  1         4 5        17  9.60  88.1  19.8 2002:1…     9.60  88.1    19.8    10.8   86.8    43.2
    ##  9 Vale… 05ja… 2002  1         5 6        19  9.20  88.8  15.9 2002:1…     9.20  88.8    15.9     9.60  88.1    19.8
    ## 10 Vale… 05ja… 2002  1         5 6        19  9.20  88.8  15.9 2002:1…     9.20  88.8    15.9     9.60  88.1    19.8
    ## # ℹ 3,642 more rows
    ## # ℹ 15 more variables: tmean_l2 <dbl>, rh_l2 <dbl>, pm10_l2 <dbl>, tmean_l3 <dbl>, rh_l3 <dbl>, pm10_l3 <dbl>,
    ## #   l03tmean <dbl>, l03rh <dbl>, l01pm10 <dbl>, ns.tmean <ns[,6]>, ns.rh <ns[,3]>, ind <int>, age <fct>,
    ## #   allage <int>, stratum4 <fct>

``` r
(df_ind4 <- df_model3 %>% 
        group_by(stratum4) %>% 
        summarise(ind4 = sum(all)))
```

    ## # A tibble: 840 × 2
    ##    stratum4          ind4
    ##    <fct>            <int>
    ##  1 2002:1:0:allage1    97
    ##  2 2002:1:0:allage2    97
    ##  3 2002:1:1:allage1    80
    ##  4 2002:1:1:allage2    80
    ##  5 2002:1:2:allage1   116
    ##  6 2002:1:2:allage2   116
    ##  7 2002:1:3:allage1   113
    ##  8 2002:1:3:allage2   113
    ##  9 2002:1:4:allage1   109
    ## 10 2002:1:4:allage2   109
    ## # ℹ 830 more rows

``` r
(df_model3a <- df_model3 %>% 
    left_join(df_ind4,
              by = join_by(stratum4)))
```

    ## # A tibble: 3,652 × 33
    ##    city  date  year  month   day dow     all tmean    rh  pm10 stratum tmean_l0 rh_l0 pm10_l0 tmean_l1 rh_l1 pm10_l1
    ##    <chr> <chr> <fct> <fct> <int> <fct> <int> <dbl> <dbl> <dbl> <fct>      <dbl> <dbl>   <dbl>    <dbl> <dbl>   <dbl>
    ##  1 Vale… 01ja… 2002  1         1 2        31  8.90  85    17.8 2002:1…     8.90  85      17.8    NA     NA      NA  
    ##  2 Vale… 01ja… 2002  1         1 2        31  8.90  85    17.8 2002:1…     8.90  85      17.8    NA     NA      NA  
    ##  3 Vale… 02ja… 2002  1         2 3        29  8.5   89.4  21.7 2002:1…     8.5   89.4    21.7     8.90  85      17.8
    ##  4 Vale… 02ja… 2002  1         2 3        29  8.5   89.4  21.7 2002:1…     8.5   89.4    21.7     8.90  85      17.8
    ##  5 Vale… 03ja… 2002  1         3 4        23 10.8   86.8  43.2 2002:1…    10.8   86.8    43.2     8.5   89.4    21.7
    ##  6 Vale… 03ja… 2002  1         3 4        23 10.8   86.8  43.2 2002:1…    10.8   86.8    43.2     8.5   89.4    21.7
    ##  7 Vale… 04ja… 2002  1         4 5        17  9.60  88.1  19.8 2002:1…     9.60  88.1    19.8    10.8   86.8    43.2
    ##  8 Vale… 04ja… 2002  1         4 5        17  9.60  88.1  19.8 2002:1…     9.60  88.1    19.8    10.8   86.8    43.2
    ##  9 Vale… 05ja… 2002  1         5 6        19  9.20  88.8  15.9 2002:1…     9.20  88.8    15.9     9.60  88.1    19.8
    ## 10 Vale… 05ja… 2002  1         5 6        19  9.20  88.8  15.9 2002:1…     9.20  88.8    15.9     9.60  88.1    19.8
    ## # ℹ 3,642 more rows
    ## # ℹ 16 more variables: tmean_l2 <dbl>, rh_l2 <dbl>, pm10_l2 <dbl>, tmean_l3 <dbl>, rh_l3 <dbl>, pm10_l3 <dbl>,
    ## #   l03tmean <dbl>, l03rh <dbl>, l01pm10 <dbl>, ns.tmean <ns[,6]>, ns.rh <ns[,3]>, ind <int>, age <fct>,
    ## #   allage <int>, stratum4 <fct>, ind4 <int>
…
