…
# Data

``` r
# data #-----------
ls_wdf <- readRDS(here("note_lehuynh/working_df.RDS"))

(dat.2city <- rbind(ls_wdf[[1]] %>% select(-allage1, -allage2, -ind),
                   ls_wdf[[2]] %>% select(-ind)))
```

    ## # A tibble: 3,652 × 28
    ##    city     date  year  month   day dow     all tmean    rh  pm10 stratum tmean_l0 rh_l0 pm10_l0
    ##    <chr>    <chr> <fct> <fct> <int> <fct> <int> <dbl> <dbl> <dbl> <fct>      <dbl> <dbl>   <dbl>
    ##  1 Valencia 01ja… 2002  1         1 2        31  8.90  85    17.8 2002:1…     8.90  85      17.8
    ##  2 Valencia 02ja… 2002  1         2 3        29  8.5   89.4  21.7 2002:1…     8.5   89.4    21.7
    ##  3 Valencia 03ja… 2002  1         3 4        23 10.8   86.8  43.2 2002:1…    10.8   86.8    43.2
    ##  4 Valencia 04ja… 2002  1         4 5        17  9.60  88.1  19.8 2002:1…     9.60  88.1    19.8
    ##  5 Valencia 05ja… 2002  1         5 6        19  9.20  88.8  15.9 2002:1…     9.20  88.8    15.9
    ##  6 Valencia 06ja… 2002  1         6 0        26  9.70  87.2  20.5 2002:1…     9.70  87.2    20.5
    ##  7 Valencia 07ja… 2002  1         7 1        25  8.80  72.4  48.9 2002:1…     8.80  72.4    48.9
    ##  8 Valencia 08ja… 2002  1         8 2        21  9.40  78.5  26   2002:1…     9.40  78.5    26  
    ##  9 Valencia 09ja… 2002  1         9 3        15  8.80  83.6  18.7 2002:1…     8.80  83.6    18.7
    ## 10 Valencia 10ja… 2002  1        10 4        19  9.60  76.2  39.6 2002:1…     9.60  76.2    39.6
    ## # ℹ 3,642 more rows
    ## # ℹ 14 more variables: tmean_l1 <dbl>, rh_l1 <dbl>, pm10_l1 <dbl>, tmean_l2 <dbl>, rh_l2 <dbl>,
    ## #   pm10_l2 <dbl>, tmean_l3 <dbl>, rh_l3 <dbl>, pm10_l3 <dbl>, l03tmean <dbl>, l03rh <dbl>,
    ## #   l01pm10 <dbl>, ns.tmean <dbl[,6]>, ns.rh <dbl[,3]>
…
    ##  [1] "city"     "date"     "year"     "month"    "day"      "dow"      "all"      "tmean"   
    ##  [9] "rh"       "pm10"     "stratum"  "tmean_l0" "rh_l0"    "pm10_l0"  "tmean_l1" "rh_l1"   
    ## [17] "pm10_l1"  "tmean_l2" "rh_l2"    "pm10_l2"  "tmean_l3" "rh_l3"    "pm10_l3"  "l03tmean"
    ## [25] "l03rh"    "l01pm10"  "ns.tmean" "ns.rh"

``` r
(dat.2city <- dat.2city %>% 
    mutate(city = as.factor(city),
           stratum = as.factor(city:year:month:dow)))
```

    ## # A tibble: 3,652 × 28
    ##    city     date  year  month   day dow     all tmean    rh  pm10 stratum tmean_l0 rh_l0 pm10_l0
    ##    <fct>    <chr> <fct> <fct> <int> <fct> <int> <dbl> <dbl> <dbl> <fct>      <dbl> <dbl>   <dbl>
    ##  1 Valencia 01ja… 2002  1         1 2        31  8.90  85    17.8 Valenc…     8.90  85      17.8
    ##  2 Valencia 02ja… 2002  1         2 3        29  8.5   89.4  21.7 Valenc…     8.5   89.4    21.7
    ##  3 Valencia 03ja… 2002  1         3 4        23 10.8   86.8  43.2 Valenc…    10.8   86.8    43.2
    ##  4 Valencia 04ja… 2002  1         4 5        17  9.60  88.1  19.8 Valenc…     9.60  88.1    19.8
    ##  5 Valencia 05ja… 2002  1         5 6        19  9.20  88.8  15.9 Valenc…     9.20  88.8    15.9
    ##  6 Valencia 06ja… 2002  1         6 0        26  9.70  87.2  20.5 Valenc…     9.70  87.2    20.5
    ##  7 Valencia 07ja… 2002  1         7 1        25  8.80  72.4  48.9 Valenc…     8.80  72.4    48.9
    ##  8 Valencia 08ja… 2002  1         8 2        21  9.40  78.5  26   Valenc…     9.40  78.5    26  
    ##  9 Valencia 09ja… 2002  1         9 3        15  8.80  83.6  18.7 Valenc…     8.80  83.6    18.7
    ## 10 Valencia 10ja… 2002  1        10 4        19  9.60  76.2  39.6 Valenc…     9.60  76.2    39.6
    ## # ℹ 3,642 more rows
    ## # ℹ 14 more variables: tmean_l1 <dbl>, rh_l1 <dbl>, pm10_l1 <dbl>, tmean_l2 <dbl>, rh_l2 <dbl>,
    ## #   pm10_l2 <dbl>, tmean_l3 <dbl>, rh_l3 <dbl>, pm10_l3 <dbl>, l03tmean <dbl>, l03rh <dbl>,
    ## #   l01pm10 <dbl>, ns.tmean <dbl[,6]>, ns.rh <dbl[,3]>

``` r
(df_ind <- dat.2city %>% 
    group_by(stratum) %>% 
    summarise(ind = sum(all)))
```

    ## # A tibble: 841 × 2
    ##    stratum           ind
    ##    <fct>           <int>
    ##  1 London:2002:1:0   738
    ##  2 London:2002:1:1   757
    ##  3 London:2002:1:2   925
    ##  4 London:2002:1:3   933
    ##  5 London:2002:1:4   948
    ##  6 London:2002:1:5   775
    ##  7 London:2002:1:6   766
    ##  8 London:2002:2:0   650
    ##  9 London:2002:2:1   638
    ## 10 London:2002:2:2   689
    ## # ℹ 831 more rows

``` r
(wdf <- dat.2city %>% 
    left_join(df_ind,
              by = join_by(stratum)))
```

    ## # A tibble: 3,652 × 29
    ##    city     date  year  month   day dow     all tmean    rh  pm10 stratum tmean_l0 rh_l0 pm10_l0
    ##    <fct>    <chr> <fct> <fct> <int> <fct> <int> <dbl> <dbl> <dbl> <fct>      <dbl> <dbl>   <dbl>
    ##  1 Valencia 01ja… 2002  1         1 2        31  8.90  85    17.8 Valenc…     8.90  85      17.8
    ##  2 Valencia 02ja… 2002  1         2 3        29  8.5   89.4  21.7 Valenc…     8.5   89.4    21.7
    ##  3 Valencia 03ja… 2002  1         3 4        23 10.8   86.8  43.2 Valenc…    10.8   86.8    43.2
    ##  4 Valencia 04ja… 2002  1         4 5        17  9.60  88.1  19.8 Valenc…     9.60  88.1    19.8
    ##  5 Valencia 05ja… 2002  1         5 6        19  9.20  88.8  15.9 Valenc…     9.20  88.8    15.9
    ##  6 Valencia 06ja… 2002  1         6 0        26  9.70  87.2  20.5 Valenc…     9.70  87.2    20.5
    ##  7 Valencia 07ja… 2002  1         7 1        25  8.80  72.4  48.9 Valenc…     8.80  72.4    48.9
    ##  8 Valencia 08ja… 2002  1         8 2        21  9.40  78.5  26   Valenc…     9.40  78.5    26  
    ##  9 Valencia 09ja… 2002  1         9 3        15  8.80  83.6  18.7 Valenc…     8.80  83.6    18.7
    ## 10 Valencia 10ja… 2002  1        10 4        19  9.60  76.2  39.6 Valenc…     9.60  76.2    39.6
    ## # ℹ 3,642 more rows
    ## # ℹ 15 more variables: tmean_l1 <dbl>, rh_l1 <dbl>, pm10_l1 <dbl>, tmean_l2 <dbl>, rh_l2 <dbl>,
    ## #   pm10_l2 <dbl>, tmean_l3 <dbl>, rh_l3 <dbl>, pm10_l3 <dbl>, l03tmean <dbl>, l03rh <dbl>,
    ## #   l01pm10 <dbl>, ns.tmean <dbl[,6]>, ns.rh <dbl[,3]>, ind <int>
…
