…
# Check data

``` r
# check data #-----------
(df_valencia <- rio::import(here("valencia.csv")) %>% tibble())
```

    ## # A tibble: 1,826 × 12
    ##    city     date       year month   day   dow   all allage1 allage2 tmean    rh  pm10
    ##    <chr>    <chr>     <int> <int> <int> <int> <int>   <int>   <int> <dbl> <dbl> <dbl>
    ##  1 Valencia 01jan2002  2002     1     1     2    31       5      26  8.90  85    17.8
    ##  2 Valencia 02jan2002  2002     1     2     3    29       3      26  8.5   89.4  21.7
    ##  3 Valencia 03jan2002  2002     1     3     4    23       4      19 10.8   86.8  43.2
    ##  4 Valencia 04jan2002  2002     1     4     5    17       2      15  9.60  88.1  19.8
    ##  5 Valencia 05jan2002  2002     1     5     6    19       6      13  9.20  88.8  15.9
    ##  6 Valencia 06jan2002  2002     1     6     0    26       4      22  9.70  87.2  20.5
    ##  7 Valencia 07jan2002  2002     1     7     1    25       6      19  8.80  72.4  48.9
    ##  8 Valencia 08jan2002  2002     1     8     2    21       0      21  9.40  78.5  26  
    ##  9 Valencia 09jan2002  2002     1     9     3    15       3      12  8.80  83.6  18.7
    ## 10 Valencia 10jan2002  2002     1    10     4    19       1      18  9.60  76.2  39.6
    ## # ℹ 1,816 more rows
…
``` r
(df_london <- rio::import(here("london.csv")) %>% tibble())
```

    ## # A tibble: 1,826 × 10
    ##    city   date       year month   day   dow   all   tmean    rh  pm10
    ##    <chr>  <chr>     <int> <int> <int> <int> <int>   <dbl> <dbl> <dbl>
    ##  1 London 01jan2002  2002     1     1     2   199 -0.225   75.7  71.7
    ##  2 London 02jan2002  2002     1     2     3   231  0.0875  77.5  40.2
    ##  3 London 03jan2002  2002     1     3     4   210  0.850   81.3  41.8
    ##  4 London 04jan2002  2002     1     4     5   203  0.538   85.4  50.4
    ##  5 London 05jan2002  2002     1     5     6   224  4.25    93.5  49.4
    ##  6 London 06jan2002  2002     1     6     0   198  7.07    96.4  31.1
    ##  7 London 07jan2002  2002     1     7     1   180  5.19    93.5  48.6
    ##  8 London 08jan2002  2002     1     8     2   188  3.51    81.5  48.6
    ##  9 London 09jan2002  2002     1     9     3   168  3.22    88.3  59.2
    ## 10 London 10jan2002  2002     1    10     4   194  5.32    85.4  48.7
    ## # ℹ 1,816 more rows
…
### Generate time-stratified strata

“1826 observations were split into 420 stratum sets defined by
day-of-week within-month and year.”

``` r
a1 <- df_valencia %>% 
    mutate(across(.cols = c(month, year, dow),
                  as.factor),
           stratum = as.factor(year:month:dow))

a1 %>% print(n = 20)
```

    ## # A tibble: 1,826 × 13
    ##    city     date      year  month   day dow     all allage1 allage2 tmean    rh  pm10 stratum 
    ##    <chr>    <chr>     <fct> <fct> <int> <fct> <int>   <int>   <int> <dbl> <dbl> <dbl> <fct>   
    ##  1 Valencia 01jan2002 2002  1         1 2        31       5      26  8.90  85    17.8 2002:1:2
    ##  2 Valencia 02jan2002 2002  1         2 3        29       3      26  8.5   89.4  21.7 2002:1:3
    ##  3 Valencia 03jan2002 2002  1         3 4        23       4      19 10.8   86.8  43.2 2002:1:4
    ##  4 Valencia 04jan2002 2002  1         4 5        17       2      15  9.60  88.1  19.8 2002:1:5
    ##  5 Valencia 05jan2002 2002  1         5 6        19       6      13  9.20  88.8  15.9 2002:1:6
    ##  6 Valencia 06jan2002 2002  1         6 0        26       4      22  9.70  87.2  20.5 2002:1:0
    ##  7 Valencia 07jan2002 2002  1         7 1        25       6      19  8.80  72.4  48.9 2002:1:1
    ##  8 Valencia 08jan2002 2002  1         8 2        21       0      21  9.40  78.5  26   2002:1:2
    ##  9 Valencia 09jan2002 2002  1         9 3        15       3      12  8.80  83.6  18.7 2002:1:3
    ## 10 Valencia 10jan2002 2002  1        10 4        19       1      18  9.60  76.2  39.6 2002:1:4
    ## 11 Valencia 11jan2002 2002  1        11 5        24       3      21 10.7   71.2  53.1 2002:1:5
    ## 12 Valencia 12jan2002 2002  1        12 6        21       2      19  8.10  78.9  45.2 2002:1:6
    ## 13 Valencia 13jan2002 2002  1        13 0        24       5      19  7.80  79.5  45.4 2002:1:0
    ## 14 Valencia 14jan2002 2002  1        14 1        17       2      15 12.6   60.9  51.6 2002:1:1
    ## 15 Valencia 15jan2002 2002  1        15 2        29       3      26 10.1   64.3  38.2 2002:1:2
    ## 16 Valencia 16jan2002 2002  1        16 3        16       2      14 11.3   48.1  44.1 2002:1:3
    ## 17 Valencia 17jan2002 2002  1        17 4        18       3      15  8.40  60.2  50.5 2002:1:4
    ## 18 Valencia 18jan2002 2002  1        18 5        18       1      17  9     71.3  50.6 2002:1:5
    ## 19 Valencia 19jan2002 2002  1        19 6        28       1      27  9.20  69.1  43.6 2002:1:6
    ## 20 Valencia 20jan2002 2002  1        20 0        24       1      23 10     71.9  29.9 2002:1:0
    ## # ℹ 1,806 more rows

``` r
a1 %>% count(stratum)
```

    ## # A tibble: 420 × 2
    ##    stratum      n
    ##    <fct>    <int>
    ##  1 2002:1:0     4
    ##  2 2002:1:1     4
    ##  3 2002:1:2     5
    ##  4 2002:1:3     5
    ##  5 2002:1:4     5
    ##  6 2002:1:5     4
    ##  7 2002:1:6     4
    ##  8 2002:2:0     4
    ##  9 2002:2:1     4
    ## 10 2002:2:2     4
    ## # ℹ 410 more rows

### Generate ‘ind’ = sum of events in each stratum

``` r
a1 %>%
    group_by(stratum) %>% 
    summarise(ind = sum(all))
```

    ## # A tibble: 420 × 2
    ##    stratum    ind
    ##    <fct>    <int>
    ##  1 2002:1:0    97
    ##  2 2002:1:1    80
    ##  3 2002:1:2   116
    ##  4 2002:1:3   113
    ##  5 2002:1:4   109
    ##  6 2002:1:5    82
    ##  7 2002:1:6    93
    ##  8 2002:2:0    77
    ##  9 2002:2:1    94
    ## 10 2002:2:2   110
    ## # ℹ 410 more rows

### Generate lagX for temperature, humidity, and PM10

``` r
df_valencia %>% 
    select(tmean, rh, pm10) %>% 
    mutate(across(.cols = c(tmean, rh, pm10),
                  ~ dplyr::lag(.x, n = 1),
                  .names = "{.col}_l1"),
           across(.cols = c(tmean, rh, pm10),
                  ~ dplyr::lag(.x, n = 3),
                  .names = "{.col}_l3"))
```

    ## # A tibble: 1,826 × 9
    ##    tmean    rh  pm10 tmean_l1 rh_l1 pm10_l1 tmean_l3 rh_l3 pm10_l3
    ##    <dbl> <dbl> <dbl>    <dbl> <dbl>   <dbl>    <dbl> <dbl>   <dbl>
    ##  1  8.90  85    17.8    NA     NA      NA      NA     NA      NA  
    ##  2  8.5   89.4  21.7     8.90  85      17.8    NA     NA      NA  
    ##  3 10.8   86.8  43.2     8.5   89.4    21.7    NA     NA      NA  
    ##  4  9.60  88.1  19.8    10.8   86.8    43.2     8.90  85      17.8
    ##  5  9.20  88.8  15.9     9.60  88.1    19.8     8.5   89.4    21.7
    ##  6  9.70  87.2  20.5     9.20  88.8    15.9    10.8   86.8    43.2
    ##  7  8.80  72.4  48.9     9.70  87.2    20.5     9.60  88.1    19.8
    ##  8  9.40  78.5  26       8.80  72.4    48.9     9.20  88.8    15.9
    ##  9  8.80  83.6  18.7     9.40  78.5    26       9.70  87.2    20.5
    ## 10  9.60  76.2  39.6     8.80  83.6    18.7     8.80  72.4    48.9
    ## # ℹ 1,816 more rows
…
``` r
df_valencia %>% 
    select(tmean) %>% 
    mutate(ns.tmean = ns(tmean, df = 6))
```

    ## # A tibble: 1,826 × 2
    ##    tmean ns.tmean[,"1"] [,"2"] [,"3"] [,"4"] [,"5"] [,"6"]
    ##    <dbl>          <dbl>  <dbl>  <dbl>  <dbl>  <dbl>  <dbl>
    ##  1  8.90          0.202      0      0 -0.185  0.481 -0.296
    ##  2  8.5           0.170      0      0 -0.185  0.481 -0.296
    ##  3 10.8           0.412      0      0 -0.157  0.407 -0.251
    ##  4  9.60          0.268      0      0 -0.180  0.468 -0.288
    ##  5  9.20          0.229      0      0 -0.184  0.477 -0.294
    ##  6  9.70          0.279      0      0 -0.179  0.465 -0.286
    ##  7  8.80          0.194      0      0 -0.185  0.481 -0.296
    ##  8  9.40          0.248      0      0 -0.182  0.473 -0.291
    ##  9  8.80          0.194      0      0 -0.185  0.481 -0.296
    ## 10  9.60          0.268      0      0 -0.180  0.468 -0.288
    ## # ℹ 1,816 more rows
…
