…
#######################################################################################
# Data management.
#######################################################################################

list.cities <- list()
list.cities[[1]]<-read.csv(here('valencia.csv'))
list.cities[[2]]<-read.csv(here('london.csv'))

list.cities[[1]] %>% tibble()
```

    ## # A tibble: 1,826 × 12
    ##    city     date       year month   day   dow   all allage1 allage2 tmean    rh  pm10
    ##    <chr>    <chr>     <int> <int> <int> <int> <int>   <int>   <int> <dbl> <dbl> <dbl>
    ##  1 Valencia 01jan2002  2002     1     1     2    31       5      26  8.90  85    17.8
    ##  2 Valencia 02jan2002  2002     1     2     3    29       3      26  8.5   89.4  21.7
    ##  3 Valencia 03jan2002  2002     1     3     4    23       4      19 10.8   86.8  43.2
    ##  4 Valencia 04jan2002  2002     1     4     5    17       2      15  9.60  88.1  19.8
    ##  5 Valencia 05jan2002  2002     1     5     6    19       6      13  9.20  88.8  15.9
    ##  6 Valencia 06jan2002  2002     1     6     0    26       4      22  9.70  87.2  20.5
    ##  7 Valencia 07jan2002  2002     1     7     1    25       6      19  8.80  72.4  48.9
    ##  8 Valencia 08jan2002  2002     1     8     2    21       0      21  9.40  78.5  26  
    ##  9 Valencia 09jan2002  2002     1     9     3    15       3      12  8.80  83.6  18.7
    ## 10 Valencia 10jan2002  2002     1    10     4    19       1      18  9.60  76.2  39.6
    ## # ℹ 1,816 more rows

``` r
list.cities[[2]] %>% tibble()
```

    ## # A tibble: 1,826 × 10
    ##    city   date       year month   day   dow   all   tmean    rh  pm10
    ##    <chr>  <chr>     <int> <int> <int> <int> <int>   <dbl> <dbl> <dbl>
    ##  1 London 01jan2002  2002     1     1     2   199 -0.225   75.7  71.7
    ##  2 London 02jan2002  2002     1     2     3   231  0.0875  77.5  40.2
    ##  3 London 03jan2002  2002     1     3     4   210  0.850   81.3  41.8
    ##  4 London 04jan2002  2002     1     4     5   203  0.538   85.4  50.4
    ##  5 London 05jan2002  2002     1     5     6   224  4.25    93.5  49.4
    ##  6 London 06jan2002  2002     1     6     0   198  7.07    96.4  31.1
    ##  7 London 07jan2002  2002     1     7     1   180  5.19    93.5  48.6
    ##  8 London 08jan2002  2002     1     8     2   188  3.51    81.5  48.6
    ##  9 London 09jan2002  2002     1     9     3   168  3.22    88.3  59.2
    ## 10 London 10jan2002  2002     1    10     4   194  5.32    85.4  48.7
    ## # ℹ 1,816 more rows
…
names(data)
```

    ##  [1] "city"     "date"     "year"     "month"    "day"      "dow"      "all"      "allage1" 
    ##  [9] "allage2"  "tmean"    "rh"       "pm10"     "l03tmean" "ns.tmean" "l03rh"    "ns.rh"   
    ## [17] "l01pm10"  "stratum"  "ind"

``` r
data %>% 
  tibble() %>% 
  select(date, year, month, dow, stratum, all, ind) %>% 
  print(n = 32)
```

    ## # A tibble: 1,826 × 7
    ##    date      year  month dow   stratum    all       ind
    ##    <chr>     <fct> <fct> <fct> <fct>    <int> <int[1d]>
    ##  1 01jan2002 2002  1     2     2002:1:2    31       116
    ##  2 02jan2002 2002  1     3     2002:1:3    29       113
    ##  3 03jan2002 2002  1     4     2002:1:4    23       109
    ##  4 04jan2002 2002  1     5     2002:1:5    17        82
    ##  5 05jan2002 2002  1     6     2002:1:6    19        93
    ##  6 06jan2002 2002  1     0     2002:1:0    26        97
    ##  7 07jan2002 2002  1     1     2002:1:1    25        80
    ##  8 08jan2002 2002  1     2     2002:1:2    21       116
    ##  9 09jan2002 2002  1     3     2002:1:3    15       113
    ## 10 10jan2002 2002  1     4     2002:1:4    19       109
    ## 11 11jan2002 2002  1     5     2002:1:5    24        82
    ## 12 12jan2002 2002  1     6     2002:1:6    21        93
    ## 13 13jan2002 2002  1     0     2002:1:0    24        97
    ## 14 14jan2002 2002  1     1     2002:1:1    17        80
    ## 15 15jan2002 2002  1     2     2002:1:2    29       116
    ## 16 16jan2002 2002  1     3     2002:1:3    16       113
    ## 17 17jan2002 2002  1     4     2002:1:4    18       109
    ## 18 18jan2002 2002  1     5     2002:1:5    18        82
    ## 19 19jan2002 2002  1     6     2002:1:6    28        93
    ## 20 20jan2002 2002  1     0     2002:1:0    24        97
    ## 21 21jan2002 2002  1     1     2002:1:1    15        80
    ## 22 22jan2002 2002  1     2     2002:1:2    16       116
    ## 23 23jan2002 2002  1     3     2002:1:3    28       113
    ## 24 24jan2002 2002  1     4     2002:1:4    26       109
    ## 25 25jan2002 2002  1     5     2002:1:5    23        82
    ## 26 26jan2002 2002  1     6     2002:1:6    25        93
    ## 27 27jan2002 2002  1     0     2002:1:0    23        97
    ## 28 28jan2002 2002  1     1     2002:1:1    23        80
    ## 29 29jan2002 2002  1     2     2002:1:2    19       116
    ## 30 30jan2002 2002  1     3     2002:1:3    25       113
    ## 31 31jan2002 2002  1     4     2002:1:4    23       109
    ## 32 01feb2002 2002  2     5     2002:2:5    20        83
    ## # ℹ 1,794 more rows
…
``` r
#######################################################################################
# Adjustment of subpopulation time-invariant covariates.
#######################################################################################

# Reshape to long format.
long.all <- reshape2::melt(dplyr::select(data, date, allage1, allage2),
                           id.vars="date", variable.name="age", value.name="allage")

long.all %>% tibble()
```

    ## # A tibble: 3,652 × 3
    ##    date      age     allage
    ##    <chr>     <fct>    <int>
    ##  1 01jan2002 allage1      5
    ##  2 02jan2002 allage1      3
    ##  3 03jan2002 allage1      4
    ##  4 04jan2002 allage1      2
    ##  5 05jan2002 allage1      6
    ##  6 06jan2002 allage1      4
    ##  7 07jan2002 allage1      6
    ##  8 08jan2002 allage1      0
    ##  9 09jan2002 allage1      3
    ## 10 10jan2002 allage1      1
    ## # ℹ 3,642 more rows
…
long %>% names()
```

    ##  [1] "date"     "age"      "allage"   "city"     "year"     "month"    "day"      "dow"     
    ##  [9] "all"      "tmean"    "rh"       "pm10"     "l03tmean" "ns.tmean" "l03rh"    "ns.rh"   
    ## [17] "l01pm10"  "stratum"  "ind"

``` r
long %>% 
  tibble() %>% 
  select(date, age, allage, all, stratum, ind)
```

    ## # A tibble: 3,652 × 6
    ##    date      age     allage   all stratum        ind
    ##    <chr>     <fct>    <int> <int> <fct>    <int[1d]>
    ##  1 01apr2002 allage2     11    12 2002:4:1        61
    ##  2 01apr2002 allage1      1    12 2002:4:1        61
    ##  3 01apr2003 allage2     16    18 2003:4:2        86
    ##  4 01apr2003 allage1      2    18 2003:4:2        86
    ##  5 01apr2004 allage2     22    26 2004:4:4       106
    ##  6 01apr2004 allage1      4    26 2004:4:4       106
    ##  7 01apr2005 allage2     17    18 2005:4:5        93
    ##  8 01apr2005 allage1      1    18 2005:4:5        93
    ##  9 01apr2006 allage2      8     9 2006:4:6        83
    ## 10 01apr2006 allage1      1     9 2006:4:6        83
    ## # ℹ 3,642 more rows
…
    ##         exp(Est.)     2.5%    97.5%
    ## l01pm10  1.022943 1.002817 1.043473

``` r
# Generate age-time-stratified strata.
long$stratum4 <- with(long, as.factor(year:month:dow:age))
long$ind4 <- tapply(long$all, long$stratum4, sum)[long$stratum4]

long %>% tibble() %>% select(year, month, dow, stratum4, ind, ind4)
```

    ## # A tibble: 3,652 × 6
    ##    year  month dow   stratum4               ind      ind4
    ##    <fct> <fct> <fct> <fct>            <int[1d]> <int[1d]>
    ##  1 2002  4     1     2002:4:1:allage2        61        61
    ##  2 2002  4     1     2002:4:1:allage1        61        61
    ##  3 2003  4     2     2003:4:2:allage2        86        86
    ##  4 2003  4     2     2003:4:2:allage1        86        86
    ##  5 2004  4     4     2004:4:4:allage2       106       106
    ##  6 2004  4     4     2004:4:4:allage1       106       106
    ##  7 2005  4     5     2005:4:5:allage2        93        93
    ##  8 2005  4     5     2005:4:5:allage1        93        93
    ##  9 2006  4     6     2006:4:6:allage2        83        83
    ## 10 2006  4     6     2006:4:6:allage1        83        83
    ## # ℹ 3,642 more rows
…
# Load Valencia R data file.
load(here("note_original/valencia.RData"))
data.vlc <- dplyr::select(data, -allage1,-allage2)

# Load London R data file.
load(here("note_original/london.RData"))
data.ldn <- data

# Append datasets.
dat.2city <- rbind(data.vlc, data.ldn)

dat.2city %>% tibble()
```

    ## # A tibble: 3,652 × 15
    ##    city     date    year month   day   dow   all tmean    rh  pm10 l03tmean ns.tmean[,"1"] l03rh
    ##    <chr>    <chr>  <int> <int> <int> <int> <int> <dbl> <dbl> <dbl>    <dbl>          <dbl> <dbl>
    ##  1 Valencia 01jan…  2002     1     1     2    31  8.90  85    17.8    NA            NA      NA  
    ##  2 Valencia 02jan…  2002     1     2     3    29  8.5   89.4  21.7    NA            NA      NA  
    ##  3 Valencia 03jan…  2002     1     3     4    23 10.8   86.8  43.2    NA            NA      NA  
    ##  4 Valencia 04jan…  2002     1     4     5    17  9.60  88.1  19.8     9.45          0.177  87.3
    ##  5 Valencia 05jan…  2002     1     5     6    19  9.20  88.8  15.9     9.53          0.184  88.3
    ##  6 Valencia 06jan…  2002     1     6     0    26  9.70  87.2  20.5     9.82          0.215  87.7
    ##  7 Valencia 07jan…  2002     1     7     1    25  8.80  72.4  48.9     9.33          0.165  84.1
    ##  8 Valencia 08jan…  2002     1     8     2    21  9.40  78.5  26       9.27          0.161  81.7
    ##  9 Valencia 09jan…  2002     1     9     3    15  8.80  83.6  18.7     9.17          0.152  80.4
    ## 10 Valencia 10jan…  2002     1    10     4    19  9.60  76.2  39.6     9.15          0.150  77.7
    ## # ℹ 3,642 more rows
    ## # ℹ 3 more variables: ns.tmean[2:6] <dbl>, ns.rh <dbl[,3]>, l01pm10 <dbl>
…
names(dat.2city)
```

    ##  [1] "city"     "date"     "year"     "month"    "day"      "dow"      "all"      "tmean"   
    ##  [9] "rh"       "pm10"     "l03tmean" "ns.tmean" "l03rh"    "ns.rh"    "l01pm10"  "stratum" 
    ## [17] "ind"

``` r
dat.2city %>% tibble() %>% select(city, year, month, dow, stratum, ind)
```

    ## # A tibble: 3,652 × 6
    ##    city     year  month dow   stratum                 ind
    ##    <fct>    <fct> <fct> <fct> <fct>             <int[1d]>
    ##  1 Valencia 2002  1     2     Valencia:2002:1:2       116
    ##  2 Valencia 2002  1     3     Valencia:2002:1:3       113
    ##  3 Valencia 2002  1     4     Valencia:2002:1:4       109
    ##  4 Valencia 2002  1     5     Valencia:2002:1:5        82
    ##  5 Valencia 2002  1     6     Valencia:2002:1:6        93
    ##  6 Valencia 2002  1     0     Valencia:2002:1:0        97
    ##  7 Valencia 2002  1     1     Valencia:2002:1:1        80
    ##  8 Valencia 2002  1     2     Valencia:2002:1:2       116
    ##  9 Valencia 2002  1     3     Valencia:2002:1:3       113
    ## 10 Valencia 2002  1     4     Valencia:2002:1:4       109
    ## # ℹ 3,642 more rows
…
